<svg xmlns="http://www.w3.org/2000/svg" width="71" height="45.182" viewBox="0 0 71 45.182">
  <path id="Collaboration-Studio" d="M114.191,319.428c-.936,0-2,.064-3.13.161,3.744,2.711,6.358,6.358,6.358,11.134v8.068h19.363v-8.068C136.782,323.2,121.711,319.428,114.191,319.428Zm-25.818,0c-7.519,0-22.591,3.776-22.591,11.295v8.068h45.182v-8.068C110.964,323.2,95.893,319.428,88.373,319.428Zm0-6.455a9.682,9.682,0,1,0-9.682-9.682A9.642,9.642,0,0,0,88.373,312.973Zm25.818,0a9.682,9.682,0,1,0-9.681-9.682A9.641,9.641,0,0,0,114.191,312.973Z" transform="translate(-65.782 -293.609)" fill="#fff"/>
</svg>
