<svg xmlns="http://www.w3.org/2000/svg" width="45.18" height="45.18" viewBox="0 0 45.18 45.18">
  <path id="Tutorial-Room" d="M311.643,322.412h-4.518v-4.518h4.518Zm-9.036,0h-4.518v-4.518h4.518Zm-9.036,0h-4.518v-4.518h4.518Zm24.849-20.331H282.276a4.511,4.511,0,0,0-4.495,4.518l-.023,40.662,9.036-9.036H318.42a4.531,4.531,0,0,0,4.518-4.518V306.6A4.531,4.531,0,0,0,318.42,302.081Z" transform="translate(-277.758 -302.081)" fill="#fff"/>
</svg>
